{
  "type": "service_account",
  "project_id": "razor-a2a3b",
  "private_key_id": "bf326f5be1828441eac9680204a81aa8ffc998e8",
  "private_key": "-----BEGIN PRIVATE KEY-----\nMIIEvAIBADANBgkqhkiG9w0BAQEFAASCBKYwggSiAgEAAoIBAQCvH4oVPc31j8KC\ntbrrzoz8GcFt7u2K7ndHMUzEIoUVFvGASvFMjUBVGTU5fYj8s/HyQJmcruaWBUV9\nCUjFsWnLNV57vQS0RLU3Jg8KD6k3mJHmHg9agePqvIVnApRgfJ2Nvp2qAPLwJkbW\nKJGbvV0X+qZCKujdS55pH/Dbi39kLIDR/Y60ac+cu5M6LIKTxnr3s932fed85oD+\ny3u592VtQ8W34kOVkIWsfkP1bapMHR5+oQaTrdUL/j6aUNb0vSu6iEeRKxveb1bw\nbm9nP7iFAQNr11WEx8hXDCYqnIZhqpFuH3YsMXQzv1RxLsLgpmXV6rL7w2qb0USu\n3+CxSQyxAgMBAAECggEAA3iDrTTYv4KKQ3qsUhbZhLgSdTYwa0nbX5P2rmb0PgUi\nw20I0AB3K1CY9VMbe02qMIfO+5PcUlIXrNkZogBohTxhK2DlRljbwhRtJSEHFKjf\nkGDdY0jyflEe8DoU/H4PxdLGr2s+JVwO2Jj8fMqRnSNstuBAlf01DiaRyJogy9iN\nDZFqXvSGa2NOsI+vElMNGLeEJFCdOTr6pOO2HEADD6DWYl1kKSYRJDpF2H/pw7Ur\n/5/wzBaRGxSbxnAEAoeImjiiRmSn7L8nUnXViiIMTzujeZs+we1YKm8IaKgF/gSL\nDf2WOpASg7XCEwF9JVyQUs3CCSSUBz1JuunYRdDggQKBgQDbjPjT0siYF5GlQZdN\n26r0D2kPU6MPuLpWovFyWOqoXkysD2WCnHBzyVKUXaXql/CNCOFNNLIQE7Gw3d9X\nI5rXof7EP8TF9Y9bTo9Np+YbtBRhIJXSo6Qnkva6phIUo+UInpAM/ghf7fxg8u7y\nDTcFKaQrwCRGJgHHYfbDes3ocQKBgQDMMl/sJ9cY8EOcQJig/vBBgJL4pn/5n4W+\nn64u7tvyH3eaUgg3l0wcxJ0GYjGV2Mv5714g/MJT4g8jXtDai4bemjo7mF34aG2n\nsn7HF0LcDWruE9RGNu3A/DdZ48y2Xvy7Iwz9fQmBHHD6Y4GKitBimJlwEb3OV3Hs\n3XB7ElWIQQKBgF0TvsnOqswP8eclj4eqgSdHATtGMfMQVa81FTdtCs6ma8rmHBrr\nR6FO0Hul2BlEoO6pvRqGJJc8QjDBX1YJ+jNAsklw33MtT8Fd5NL/Q0araZhjwCC0\nz3sXixJGJZQqh4bH8joP2G0S79QKKdLkV1cQ+FCz/KzgoBBvL7Zf8buBAoGAUDfR\n+yJDnCZ3SSEPVOASXok2M7ylNdl3X0W31fQ8L8gw4k0rsTscyYhr76APvsBmkY95\nuRfS98UtEUYkYlbB6x1HlzXqZLYRrfmvWGNI/s2+njzn/ZWCnXf3/rZBK7vxKUtB\nxSuj2jbkI1mIAHc8Gh+814wAttkfhmAP2il/tIECgYBaVRBGTFs0GUYZFRefbqRh\ngbU180fXmCf9nSdIkLccnNHliRFx3mbW4tlFS6pNK3CdUxA0mY5+XzIr5ZQER4DS\nxoxl4u+pRy0BjOd+FThZVSOtlJnT6yioBxZKQCYETzHsyZN9N3YuY0sNUUvxACP4\nbf8WRBXF51j4qHY54Q6MBw==\n-----END PRIVATE KEY-----\n",
  "client_email": "firebase-adminsdk-pjady@razor-a2a3b.iam.gserviceaccount.com",
  "client_id": "103383289547555842323",
  "auth_uri": "https://accounts.google.com/o/oauth2/auth",
  "token_uri": "https://oauth2.googleapis.com/token",
  "auth_provider_x509_cert_url": "https://www.googleapis.com/oauth2/v1/certs",
  "client_x509_cert_url": "https://www.googleapis.com/robot/v1/metadata/x509/firebase-adminsdk-pjady%40razor-a2a3b.iam.gserviceaccount.com"
}
